[gd_scene load_steps=27 format=2]

[ext_resource path="res://assets/sprites/tiles/tile01.png" type="Texture" id=1]
[ext_resource path="res://scenes/Player.tscn" type="PackedScene" id=2]
[ext_resource path="res://assets/sprites/tiles/tile05.png" type="Texture" id=3]
[ext_resource path="res://assets/sprites/tiles/bottom.png" type="Texture" id=4]
[ext_resource path="res://assets/sounds/nivel2.wav" type="AudioStream" id=5]
[ext_resource path="res://assets/sprites/tiles/tile16.png" type="Texture" id=6]
[ext_resource path="res://assets/sprites/tiles/bordercrate.png" type="Texture" id=7]
[ext_resource path="res://assets/sprites/tiles/void.png" type="Texture" id=8]
[ext_resource path="res://scenes/Enemigo1.tscn" type="PackedScene" id=9]
[ext_resource path="res://assets/sprites/tiles/tile02.png" type="Texture" id=10]
[ext_resource path="res://assets/sprites/tiles/walltorch.png" type="Texture" id=11]
[ext_resource path="res://assets/sprites/tiles/tile17.png" type="Texture" id=12]
[ext_resource path="res://assets/sprites/tiles/tile19.png" type="Texture" id=13]
[ext_resource path="res://assets/sprites/tiles/topcrate.png" type="Texture" id=14]
[ext_resource path="res://scenes/Controls.tscn" type="PackedScene" id=15]
[ext_resource path="res://scripts/TileMap.gd" type="Script" id=16]
[ext_resource path="res://scenes/Bullet.tscn" type="PackedScene" id=17]
[ext_resource path="res://scenes/GridTest.gd" type="Script" id=18]
[ext_resource path="res://assets/sprites/items/item03.png" type="Texture" id=21]

[sub_resource type="ConvexPolygonShape2D" id=1]
points = PoolVector2Array( 0, 0, 16, 0, 16, 16, 0, 16 )

[sub_resource type="ConvexPolygonShape2D" id=2]
points = PoolVector2Array( 0, 0, 16, 0, 16, 16, 0, 16 )

[sub_resource type="ConvexPolygonShape2D" id=3]
points = PoolVector2Array( 0, 0, 16, 0, 16, 16, 0, 16 )

[sub_resource type="ConvexPolygonShape2D" id=4]
points = PoolVector2Array( 16, 16, 0, 16, 0, 0, 16, 0 )

[sub_resource type="ConvexPolygonShape2D" id=5]
points = PoolVector2Array( 0, 0, 16, 0, 16, 16, 0, 16 )

[sub_resource type="ConvexPolygonShape2D" id=6]
points = PoolVector2Array( 0, 0, 16, 0, 16, 16, 0, 16 )

[sub_resource type="TileSet" id=7]
0/name = "tile01.png 0"
0/texture = ExtResource( 1 )
0/tex_offset = Vector2( 0, 0 )
0/modulate = Color( 1, 1, 1, 1 )
0/region = Rect2( 0, 0, 16, 16 )
0/tile_mode = 0
0/occluder_offset = Vector2( 0, 0 )
0/navigation_offset = Vector2( 0, 0 )
0/shape_offset = Vector2( 0, 0 )
0/shape_transform = Transform2D( 1, 0, 0, 1, 0, 0 )
0/shape_one_way = false
0/shape_one_way_margin = 0.0
0/shapes = [  ]
0/z_index = 0
1/name = "tile05.png 1"
1/texture = ExtResource( 3 )
1/tex_offset = Vector2( 0, 0 )
1/modulate = Color( 1, 1, 1, 1 )
1/region = Rect2( 0, 0, 16, 16 )
1/tile_mode = 0
1/occluder_offset = Vector2( 0, 0 )
1/navigation_offset = Vector2( 0, 0 )
1/shape_offset = Vector2( 0, 0 )
1/shape_transform = Transform2D( 1, 0, 0, 1, 0, 0 )
1/shape = SubResource( 1 )
1/shape_one_way = false
1/shape_one_way_margin = 1.0
1/shapes = [ {
"autotile_coord": Vector2( 0, 0 ),
"one_way": false,
"one_way_margin": 1.0,
"shape": SubResource( 1 ),
"shape_transform": Transform2D( 1, 0, 0, 1, 0, 0 )
} ]
1/z_index = 0
2/name = "tile16.png 2"
2/texture = ExtResource( 6 )
2/tex_offset = Vector2( 0, 0 )
2/modulate = Color( 1, 1, 1, 1 )
2/region = Rect2( 0, 0, 16, 16 )
2/tile_mode = 0
2/occluder_offset = Vector2( 0, 0 )
2/navigation_offset = Vector2( 0, 0 )
2/shape_offset = Vector2( 0, 0 )
2/shape_transform = Transform2D( 1, 0, 0, 1, 0, 0 )
2/shape_one_way = false
2/shape_one_way_margin = 0.0
2/shapes = [  ]
2/z_index = 0
3/name = "void.png 3"
3/texture = ExtResource( 8 )
3/tex_offset = Vector2( 0, 0 )
3/modulate = Color( 1, 1, 1, 1 )
3/region = Rect2( 0, 0, 16, 16 )
3/tile_mode = 0
3/occluder_offset = Vector2( 0, 0 )
3/navigation_offset = Vector2( 0, 0 )
3/shape_offset = Vector2( 0, 0 )
3/shape_transform = Transform2D( 1, 0, 0, 1, 0, 0 )
3/shape = SubResource( 2 )
3/shape_one_way = false
3/shape_one_way_margin = 1.0
3/shapes = [ {
"autotile_coord": Vector2( 0, 0 ),
"one_way": false,
"one_way_margin": 1.0,
"shape": SubResource( 2 ),
"shape_transform": Transform2D( 1, 0, 0, 1, 0, 0 )
} ]
3/z_index = 0
4/name = "topcrate.png 4"
4/texture = ExtResource( 14 )
4/tex_offset = Vector2( 0, 0 )
4/modulate = Color( 1, 1, 1, 1 )
4/region = Rect2( 0, 0, 16, 16 )
4/tile_mode = 0
4/occluder_offset = Vector2( 0, 0 )
4/navigation_offset = Vector2( 0, 0 )
4/shape_offset = Vector2( 0, 0 )
4/shape_transform = Transform2D( 1, 0, 0, 1, 0, 0 )
4/shape_one_way = false
4/shape_one_way_margin = 0.0
4/shapes = [  ]
4/z_index = 0
5/name = "bottom.png 5"
5/texture = ExtResource( 4 )
5/tex_offset = Vector2( 0, 0 )
5/modulate = Color( 1, 1, 1, 1 )
5/region = Rect2( 0, 0, 16, 16 )
5/tile_mode = 0
5/occluder_offset = Vector2( 0, 0 )
5/navigation_offset = Vector2( 0, 0 )
5/shape_offset = Vector2( 0, 0 )
5/shape_transform = Transform2D( 1, 0, 0, 1, 0, 0 )
5/shape = SubResource( 3 )
5/shape_one_way = false
5/shape_one_way_margin = 1.0
5/shapes = [ {
"autotile_coord": Vector2( 0, 0 ),
"one_way": false,
"one_way_margin": 1.0,
"shape": SubResource( 3 ),
"shape_transform": Transform2D( 1, 0, 0, 1, 0, 0 )
} ]
5/z_index = 0
6/name = "bordercrate.png 6"
6/texture = ExtResource( 7 )
6/tex_offset = Vector2( 0, 0 )
6/modulate = Color( 1, 1, 1, 1 )
6/region = Rect2( 0, 0, 16, 16 )
6/tile_mode = 0
6/occluder_offset = Vector2( 0, 0 )
6/navigation_offset = Vector2( 0, 0 )
6/shape_offset = Vector2( 0, 0 )
6/shape_transform = Transform2D( 1, 0, 0, 1, 0, 0 )
6/shape_one_way = false
6/shape_one_way_margin = 0.0
6/shapes = [  ]
6/z_index = 0
7/name = "item03.png 7"
7/texture = ExtResource( 21 )
7/tex_offset = Vector2( 0, 0 )
7/modulate = Color( 1, 1, 1, 1 )
7/region = Rect2( 0, 0, 16, 16 )
7/tile_mode = 0
7/occluder_offset = Vector2( 0, 0 )
7/navigation_offset = Vector2( 0, 0 )
7/shape_offset = Vector2( 0, 0 )
7/shape_transform = Transform2D( 1, 0, 0, 1, 0, 0 )
7/shape = SubResource( 4 )
7/shape_one_way = false
7/shape_one_way_margin = 1.0
7/shapes = [ {
"autotile_coord": Vector2( 0, 0 ),
"one_way": false,
"one_way_margin": 1.0,
"shape": SubResource( 4 ),
"shape_transform": Transform2D( 1, 0, 0, 1, 0, 0 )
} ]
7/z_index = 0
8/name = "tile02.png 8"
8/texture = ExtResource( 10 )
8/tex_offset = Vector2( 0, 0 )
8/modulate = Color( 1, 1, 1, 1 )
8/region = Rect2( 0, 0, 16, 16 )
8/tile_mode = 0
8/occluder_offset = Vector2( 0, 0 )
8/navigation_offset = Vector2( 0, 0 )
8/shape_offset = Vector2( 0, 0 )
8/shape_transform = Transform2D( 1, 0, 0, 1, 0, 0 )
8/shape_one_way = false
8/shape_one_way_margin = 0.0
8/shapes = [  ]
8/z_index = 0
9/name = "walltorch.png 9"
9/texture = ExtResource( 11 )
9/tex_offset = Vector2( 0, 0 )
9/modulate = Color( 1, 1, 1, 1 )
9/region = Rect2( 0, 0, 16, 16 )
9/tile_mode = 0
9/occluder_offset = Vector2( 0, 0 )
9/navigation_offset = Vector2( 0, 0 )
9/shape_offset = Vector2( 0, 0 )
9/shape_transform = Transform2D( 1, 0, 0, 1, 0, 0 )
9/shape = SubResource( 5 )
9/shape_one_way = false
9/shape_one_way_margin = 1.0
9/shapes = [ {
"autotile_coord": Vector2( 0, 0 ),
"one_way": false,
"one_way_margin": 1.0,
"shape": SubResource( 5 ),
"shape_transform": Transform2D( 1, 0, 0, 1, 0, 0 )
}, {
"autotile_coord": Vector2( 0, 0 ),
"one_way": false,
"one_way_margin": 1.0,
"shape": SubResource( 6 ),
"shape_transform": Transform2D( 1, 0, 0, 1, 0, 0 )
} ]
9/z_index = 0
10/name = "tile17.png 10"
10/texture = ExtResource( 12 )
10/tex_offset = Vector2( 0, 0 )
10/modulate = Color( 1, 1, 1, 1 )
10/region = Rect2( 0, 0, 16, 16 )
10/tile_mode = 0
10/occluder_offset = Vector2( 0, 0 )
10/navigation_offset = Vector2( 0, 0 )
10/shape_offset = Vector2( 0, 0 )
10/shape_transform = Transform2D( 1, 0, 0, 1, 0, 0 )
10/shape_one_way = false
10/shape_one_way_margin = 0.0
10/shapes = [  ]
10/z_index = 0
11/name = "tile19.png 11"
11/texture = ExtResource( 13 )
11/tex_offset = Vector2( 0, 0 )
11/modulate = Color( 1, 1, 1, 1 )
11/region = Rect2( 0, 0, 16, 16 )
11/tile_mode = 0
11/occluder_offset = Vector2( 0, 0 )
11/navigation_offset = Vector2( 0, 0 )
11/shape_offset = Vector2( 0, 0 )
11/shape_transform = Transform2D( 1, 0, 0, 1, 0, 0 )
11/shape_one_way = false
11/shape_one_way_margin = 0.0
11/shapes = [  ]
11/z_index = 0

[node name="Tutorial" type="Node2D"]
script = ExtResource( 18 )

[node name="TileMap" type="TileMap" parent="."]
tile_set = SubResource( 7 )
cell_size = Vector2( 16, 16 )
collision_layer = 16
collision_mask = 0
format = 1
tile_data = PoolIntArray( -262157, 536870915, 0, -262156, 536870916, 0, -262155, 4, 0, -262154, 4, 0, -262153, 4, 0, -262152, 4, 0, -262151, 4, 0, -262150, 4, 0, -262149, 4, 0, -262148, 4, 0, -262147, 4, 0, -262146, 4, 0, -262145, 4, 0, -327680, 4, 0, -327679, 4, 0, -327678, 4, 0, -327677, 4, 0, -327676, 4, 0, -327675, 4, 0, -327674, 4, 0, -327673, 4, 0, -327672, 4, 0, -327671, 4, 0, -327670, 4, 0, -327669, 3, 0, -196621, -536870909, 0, -196620, 1610612745, 0, -196619, 1610612745, 0, -196618, 1610612745, 0, -196617, 1610612745, 0, -196616, 1610612745, 0, -196615, 1610612745, 0, -196614, 1610612745, 0, -196613, 1610612745, 0, -196612, 1610612745, 0, -196611, 1610612745, 0, -196610, 1073741833, 0, -196609, 1073741833, 0, -262144, 1073741833, 0, -262143, 1073741833, 0, -262142, 1073741833, 0, -262141, 1073741833, 0, -262140, 1073741833, 0, -262139, 1073741833, 0, -262138, 1073741833, 0, -262137, 1073741833, 0, -262136, 1073741833, 0, -262135, 1073741833, 0, -262134, 1073741833, 0, -262133, 3, 0, -131085, -536870909, 0, -131084, 536870913, 0, -131083, 1610612736, 0, -131082, 1610612736, 0, -131081, 1610612736, 0, -131080, 1610612736, 0, -131079, 1610612736, 0, -131078, 1610612736, 0, -131077, 1610612736, 0, -131076, 1610612736, 0, -131075, 1610612736, 0, -131074, 1610612736, 0, -131073, 1073741824, 0, -196608, 1073741824, 0, -196607, 1073741824, 0, -196606, 1073741824, 0, -196605, 1073741824, 0, -196604, 1073741824, 0, -196603, 1073741824, 0, -196602, 1073741824, 0, -196601, 1073741824, 0, -196600, 1073741824, 0, -196599, 1073741824, 0, -196598, 10, 0, -196597, 3, 0, -65549, -536870909, 0, -65548, 536870913, 0, -65547, 1610612736, 0, -65546, 1610612736, 0, -65545, 1610612736, 0, -65544, 1610612736, 0, -65543, 1610612736, 0, -65542, 1610612736, 0, -65541, 1610612736, 0, -65540, 1610612736, 0, -65539, 1610612736, 0, -65538, 1610612736, 0, -65537, 1073741824, 0, -131072, 1073741824, 0, -131071, 1073741824, 0, -131070, 1073741824, 0, -131069, 1073741824, 0, -131068, -2147483642, 0, -131067, 1073741824, 0, -131066, 1073741824, 0, -131065, 1073741824, 0, -131064, 1073741824, 0, -131063, 1073741824, 0, -131062, 10, 0, -131061, 3, 0, -13, -536870909, 0, -12, 536870913, 0, -11, 1610612736, 0, -10, 1610612736, 0, -9, 1610612736, 0, -8, 1610612736, 0, -7, 1610612736, 0, -6, 1610612736, 0, -5, 1610612736, 0, -4, 1610612736, 0, -3, 1610612736, 0, -2, 1610612736, 0, -1, 1073741824, 0, -65536, 536870923, 0, -65535, 536870923, 0, -65534, 536870923, 0, -65533, 536870923, 0, -65532, 536870923, 0, -65531, 536870923, 0, -65530, 536870923, 0, -65529, 536870923, 0, -65528, 536870923, 0, -65527, -2147483642, 0, -65526, 10, 0, -65525, 3, 0, 65523, -536870909, 0, 65524, 536870913, 0, 65525, 1610612736, 0, 65526, 536870922, 0, 65527, 536870922, 0, 65528, 536870922, 0, 65529, 536870922, 0, 65530, 1610612736, 0, 65531, 1610612736, 0, 65532, 1610612736, 0, 65533, 1610612736, 0, 65534, 1610612736, 0, 65535, 1073741824, 0, 0, 536870923, 0, 1, 536870917, 0, 2, 536870917, 0, 3, 536870917, 0, 4, 536870917, 0, 5, 536870917, 0, 6, 536870917, 0, 7, 536870917, 0, 8, 536870923, 0, 9, 1073741824, 0, 10, 10, 0, 11, 3, 0, 131059, -536870909, 0, 131060, 536870913, 0, 131061, 1610612736, 0, 131062, 536870922, 0, 131063, -2147483642, 0, 131064, -2147483642, 0, 131065, 536870922, 0, 131066, 1610612736, 0, 131067, 1610612736, 0, 131068, 1610612736, 0, 131069, 1610612736, 0, 131070, 1610612736, 0, 131071, -2147483642, 0, 65536, 536870923, 0, 65537, 536870915, 0, 65538, 536870915, 0, 65539, 536870915, 0, 65540, 536870915, 0, 65541, 536870915, 0, 65542, 536870915, 0, 65543, 536870915, 0, 65544, 536870923, 0, 65545, 1073741824, 0, 65546, 10, 0, 65547, 3, 0, 196595, -536870909, 0, 196596, 536870913, 0, 196597, 1610612736, 0, 196598, 536870922, 0, 196599, -2147483642, 0, 196600, -2147483642, 0, 196601, 536870922, 0, 196602, 1610612736, 0, 196603, 1610612736, 0, 196604, 1610612736, 0, 196605, 1610612736, 0, 196606, 1610612736, 0, 196607, 1073741824, 0, 131072, 536870923, 0, 131073, 536870915, 0, 131074, 536870915, 0, 131075, 536870915, 0, 131076, 536870915, 0, 131077, 536870915, 0, 131078, 536870915, 0, 131079, 536870915, 0, 131080, 536870923, 0, 131081, 1073741824, 0, 131082, 10, 0, 131083, 3, 0, 262131, -536870909, 0, 262132, 536870913, 0, 262133, 1610612736, 0, 262134, 536870922, 0, 262135, 536870922, 0, 262136, 536870922, 0, 262137, 536870922, 0, 262138, 1610612736, 0, 262139, 1610612736, 0, 262140, 1610612736, 0, 262141, 1610612736, 0, 262142, 1610612736, 0, 262143, 1073741824, 0, 196608, 536870923, 0, 196609, 536870923, 0, 196610, 536870923, 0, 196611, 536870923, 0, 196612, 536870923, 0, 196613, 536870923, 0, 196614, 536870923, 0, 196615, 536870923, 0, 196616, 536870923, 0, 196617, 1073741824, 0, 196618, 10, 0, 196619, 3, 0, 327667, -536870909, 0, 327668, 536870913, 0, 327669, 1610612736, 0, 327670, 1610612736, 0, 327671, 1610612736, 0, 327672, 1610612736, 0, 327673, 1610612736, 0, 327674, 1610612736, 0, 327675, 1610612736, 0, 327676, 1610612736, 0, 327677, 1610612736, 0, 327678, 1610612736, 0, 327679, 1073741824, 0, 262144, 1073741824, 0, 262145, 1073741824, 0, 262146, 1073741824, 0, 262147, 1073741824, 0, 262148, 1073741824, 0, 262149, 1073741824, 0, 262150, 1073741824, 0, 262151, 1073741824, 0, 262152, 1073741824, 0, 262153, 1073741824, 0, 262154, 10, 0, 262155, 3, 0, 393203, -536870909, 0, 393204, 536870913, 0, 393205, 1610612736, 0, 393206, 1610612736, 0, 393207, 1610612736, 0, 393208, 1610612736, 0, 393209, 1610612736, 0, 393210, 1610612736, 0, 393211, 1610612736, 0, 393212, 1610612736, 0, 393213, 1610612736, 0, 393214, 1610612736, 0, 393215, 1073741824, 0, 327680, 1073741824, 0, 327681, 1073741824, 0, 327682, 1073741824, 0, 327683, 1073741824, 0, 327684, 1073741824, 0, 327685, 1073741824, 0, 327686, 1073741824, 0, 327687, 1073741824, 0, 327688, 1073741824, 0, 327689, 1073741824, 0, 327690, 10, 0, 327691, 3, 0, 458739, -536870909, 0, 458740, 536870913, 0, 458741, -1610612725, 0, 458742, -1610612725, 0, 458743, -1610612725, 0, 458744, -1610612725, 0, 458745, -1610612725, 0, 458746, -1610612725, 0, 458747, -1610612725, 0, 458748, -1610612725, 0, 458749, -1610612725, 0, 458750, -1610612725, 0, 458751, 1073741824, 0, 393216, 1073741824, 0, 393217, 1073741824, 0, 393218, 1073741824, 0, 393219, 1073741824, 0, 393220, 1073741824, 0, 393221, -2147483642, 0, 393222, 1073741824, 0, 393223, 1073741824, 0, 393224, 1073741824, 0, 393225, 1073741824, 0, 393226, 10, 0, 393227, 3, 0, 524275, -536870909, 0, 524276, 536870917, 0, 524277, 536870917, 0, 524278, 536870917, 0, 524279, 536870917, 0, 524280, 536870917, 0, 524281, 536870917, 0, 524282, 536870917, 0, 524283, 536870917, 0, 524284, 536870917, 0, 524285, 536870917, 0, 524286, 1610612747, 0, 524287, 1073741824, 0, 458752, 1073741824, 0, 458753, 1073741824, 0, 458754, 1073741824, 0, 458755, 1073741824, 0, 458756, 1073741824, 0, 458757, 1073741824, 0, 458758, 1073741824, 0, 458759, 1073741824, 0, 458760, -2147483642, 0, 458761, 1073741824, 0, 458762, 10, 0, 458763, 3, 0, 589811, 536870915, 0, 589812, 536870915, 0, 589813, 536870915, 0, 589814, 536870915, 0, 589815, 536870915, 0, 589816, 536870915, 0, 589817, 536870915, 0, 589818, 536870915, 0, 589819, 536870915, 0, 589820, 536870915, 0, 589821, 1073741827, 0, 589822, 1610612747, 0, 589823, 1073741824, 0, 524288, 1073741824, 0, 524289, 1073741824, 0, 524290, 1073741824, 0, 524291, 1073741824, 0, 524292, 1073741824, 0, 524293, 1073741824, 0, 524294, 1073741824, 0, 524295, 1073741824, 0, 524296, 1073741824, 0, 524297, 1073741824, 0, 524298, 10, 0, 524299, 3, 0, 655347, 536870915, 0, 655348, 536870915, 0, 655349, 536870915, 0, 655350, 536870915, 0, 655351, 536870915, 0, 655352, 536870915, 0, 655353, 536870915, 0, 655354, 536870915, 0, 655355, 536870915, 0, 655356, 536870915, 0, 655357, 1073741827, 0, 655358, 1610612747, 0, 655359, -2147483638, 0, 589824, -2147483638, 0, 589825, -2147483638, 0, 589826, -2147483638, 0, 589827, -2147483638, 0, 589828, -2147483638, 0, 589829, -2147483638, 0, 589830, -2147483638, 0, 589831, -2147483638, 0, 589832, -2147483638, 0, 589833, -2147483638, 0, 589834, -2147483638, 0, 589835, 3, 0, 720883, 536870915, 0, 720884, 536870915, 0, 720885, 536870915, 0, 720886, 536870915, 0, 720887, 536870915, 0, 720888, 536870915, 0, 720889, 536870915, 0, 720890, 536870915, 0, 720891, 536870915, 0, 720892, 536870915, 0, 720893, 1073741827, 0, 720894, 1073741829, 0, 720895, 1073741829, 0, 655360, 1073741829, 0, 655361, 1073741829, 0, 655362, 1073741829, 0, 655363, 1073741829, 0, 655364, 1073741829, 0, 655365, 1073741829, 0, 655366, 1073741829, 0, 655367, 1073741829, 0, 655368, 1073741829, 0, 655369, 1073741829, 0, 655370, 1073741829, 0, 655371, 3, 0, 786419, 536870915, 0, 786420, 536870915, 0, 786421, 536870915, 0, 786422, 536870915, 0, 786423, 536870915, 0, 786424, 536870915, 0, 786425, 536870915, 0, 786426, 536870915, 0, 786427, 536870915, 0, 786428, 536870915, 0, 786429, 1073741827, 0, 786430, 1073741827, 0, 786431, 1073741827, 0, 720896, 1073741827, 0, 720897, 1073741827, 0, 720898, 1073741827, 0, 720899, 1073741827, 0, 720900, 1073741827, 0, 720901, 1073741827, 0, 720902, 1073741827, 0, 720903, 1073741827, 0, 720904, 1073741827, 0, 720905, 1073741827, 0, 720906, 1073741827, 0, 720907, 3, 0 )
script = ExtResource( 16 )

[node name="Player" parent="." instance=ExtResource( 2 )]
position = Vector2( -160, -32 )
z_index = 1
bullet_scene = ExtResource( 17 )

[node name="Enemigo1" parent="." instance=ExtResource( 9 )]
position = Vector2( -112, -32 )

[node name="Enemigo2" parent="." instance=ExtResource( 9 )]
position = Vector2( 32, 64 )
damage = 2

[node name="Enemigo3" parent="." instance=ExtResource( 9 )]
position = Vector2( 112, 48 )
damage = 2

[node name="CanvasLayer" type="CanvasLayer" parent="."]

[node name="Controls" parent="CanvasLayer" instance=ExtResource( 15 )]
margin_left = -48.0
margin_top = -720.0
margin_right = 320.0
margin_bottom = -592.0

[node name="Music" type="AudioStreamPlayer" parent="."]
stream = ExtResource( 5 )
volume_db = -34.471
autoplay = true
