; Engine configuration file.
; It's best edited using the editor UI and not directly,
; since the parameters that go here are not all obvious.
;
; Format:
;   [section] ; section goes between []
;   param=value ; assign values to parameters

config_version=4

_global_script_classes=[ {
"base": "Node",
"class": "Dialogic",
"language": "GDScript",
"path": "res://addons/dialogic/Other/DialogicClass.gd"
}, {
"base": "Control",
"class": "DialogicBackgroundMusic",
"language": "GDScript",
"path": "res://addons/dialogic/Nodes/BackgroundMusic.gd"
}, {
"base": "Node",
"class": "DialogicDefinitionsUtil",
"language": "GDScript",
"path": "res://addons/dialogic/Other/DialogicDefinitionsUtil.gd"
}, {
"base": "Reference",
"class": "DialogicResources",
"language": "GDScript",
"path": "res://addons/dialogic/Other/DialogicResources.gd"
}, {
"base": "Reference",
"class": "DialogicUtil",
"language": "GDScript",
"path": "res://addons/dialogic/Other/DialogicUtil.gd"
} ]
_global_script_class_icons={
"Dialogic": "",
"DialogicBackgroundMusic": "",
"DialogicDefinitionsUtil": "",
"DialogicResources": "",
"DialogicUtil": ""
}

[application]

config/name="Exterminador"
run/main_scene="res://scenes/GridTest.tscn"
boot_splash/image="res://assets/ui/Splash.png"
boot_splash/bg_color=Color( 0.988235, 0.72549, 0.447059, 1 )
config/icon="res://assets/ui/icon.png"

[autoload]

Global="*res://scripts/Global.gd"
Transitions="*res://addons/godot_transitions/transitions.gd"
DialogicSingleton="*res://addons/dialogic/Other/DialogicSingleton.gd"

[display]

window/size/width=1920
window/size/height=1080
window/size/test_width=1280
window/size/test_height=720
window/stretch/mode="2d"
window/stretch/aspect="expand"

[editor_plugins]

enabled=PoolStringArray( "res://addons/dialogic/plugin.cfg", "res://addons/godot_transitions/plugin.cfg" )

[input]

right={
"deadzone": 0.5,
"events": [ Object(InputEventKey,"resource_local_to_scene":false,"resource_name":"","device":0,"alt":false,"shift":false,"control":false,"meta":false,"command":false,"pressed":false,"scancode":16777233,"physical_scancode":0,"unicode":0,"echo":false,"script":null)
 ]
}
left={
"deadzone": 0.5,
"events": [ Object(InputEventKey,"resource_local_to_scene":false,"resource_name":"","device":0,"alt":false,"shift":false,"control":false,"meta":false,"command":false,"pressed":false,"scancode":16777231,"physical_scancode":0,"unicode":0,"echo":false,"script":null)
 ]
}
up={
"deadzone": 0.5,
"events": [ Object(InputEventKey,"resource_local_to_scene":false,"resource_name":"","device":0,"alt":false,"shift":false,"control":false,"meta":false,"command":false,"pressed":false,"scancode":16777232,"physical_scancode":0,"unicode":0,"echo":false,"script":null)
 ]
}
down={
"deadzone": 0.5,
"events": [ Object(InputEventKey,"resource_local_to_scene":false,"resource_name":"","device":0,"alt":false,"shift":false,"control":false,"meta":false,"command":false,"pressed":false,"scancode":16777234,"physical_scancode":0,"unicode":0,"echo":false,"script":null)
 ]
}
shoot={
"deadzone": 0.5,
"events": [ Object(InputEventKey,"resource_local_to_scene":false,"resource_name":"","device":0,"alt":false,"shift":false,"control":false,"meta":false,"command":false,"pressed":false,"scancode":32,"physical_scancode":0,"unicode":0,"echo":false,"script":null)
 ]
}

[input_devices]

pointing/emulate_touch_from_mouse=true

[layer_names]

2d_physics/layer_1="Player"
2d_physics/layer_2="Monster"
2d_physics/layer_3="Bullet"
2d_physics/layer_4="Item"
2d_physics/layer_5="Obstacle"

[physics]

common/enable_pause_aware_picking=true

[rendering]

environment/default_environment="res://default_env.tres"
