{
	"color": "#ff6fff5f",
	"description": "",
	"display_name": "",
	"display_name_bool": false,
	"id": "character-1627792757.json",
	"mirror_portraits": false,
	"name": "I.A",
	"nickname": "",
	"nickname_bool": false,
	"offset_x": -250,
	"offset_y": -180,
	"portraits": [
		{
			"name": "Default",
			"path": "res://assets/ui/portraits/IA.png"
		}
	],
	"scale": 100
}
