[gd_resource type="DynamicFont" load_steps=2 format=2]

[ext_resource path="res://assets/font/Symtext.ttf" type="DynamicFontData" id=1]

[resource]
size = 28
extra_spacing_top = 18
extra_spacing_space = 1
font_data = ExtResource( 1 )
